…
data <- rbind(reverse, forward) |> 
  mutate(
    timepoint = as.factor(str_extract(filename, "\\d+"))
  ) |> 
  mutate(timepoint = fct_relevel(timepoint, c('2','5','10','20','30'))) |>
  filter(coverage != 0) |> 
  mutate(sqrt_cov = sqrt(coverage))

data
```

    # A tibble: 680,966 × 8
       filename                 chr   start   end coverage strand timepoint sqrt_cov
       <fct>                    <chr> <int> <int>    <int> <chr>  <fct>        <dbl>
     1 grouped-mapping/mosdept… NC_0…    52    56        1 +      10            1   
     2 grouped-mapping/mosdept… NC_0…    56    60        2 +      10            1.41
     3 grouped-mapping/mosdept… NC_0…    60    61        8 +      10            2.83
     4 grouped-mapping/mosdept… NC_0…    61    62       32 +      10            5.66
     5 grouped-mapping/mosdept… NC_0…    62    63       51 +      10            7.14
     6 grouped-mapping/mosdept… NC_0…    63    64       52 +      10            7.21
     7 grouped-mapping/mosdept… NC_0…    64   100       54 +      10            7.35
     8 grouped-mapping/mosdept… NC_0…   100   113       55 +      10            7.42
     9 grouped-mapping/mosdept… NC_0…   113   127       57 +      10            7.55
    10 grouped-mapping/mosdept… NC_0…   127   130       56 +      10            7.48
    # ℹ 680,956 more rows
…
``` r
process_expression_data(folder_path = "ungrouped-mapping/ncbi-mapping/", output_file_path = "ungrouped-mapping/ncbi-phageK-expression.tsv")
```

    # A tibble: 233 × 19
       Gene           `Newman-control-R01` `Newman-control-R02` `Newman-control-R03`
       <chr>                         <dbl>                <dbl>                <dbl>
     1 YP_009041223.1                    0                    0                    0
     2 YP_009041224.1                    0                    0                    0
     3 YP_009041225.1                    0                    0                    0
     4 YP_009041226.1                    0                    0                    0
     5 YP_009041227.1                    0                    0                    0
     6 YP_009041228.1                    1                    0                    0
     7 YP_009041229.1                    0                    0                    0
     8 YP_009041230.1                    0                    0                    0
     9 YP_009041231.1                    1                    0                    0
    10 YP_009041232.1                    0                    0                    0
    # ℹ 223 more rows
    # ℹ 15 more variables: `Newman-min10-R01` <dbl>, `Newman-min10-R02` <dbl>,
    #   `Newman-min10-R03` <dbl>, `Newman-min2-R01` <dbl>, `Newman-min2-R02` <dbl>,
    #   `Newman-min2-R03` <dbl>, `Newman-min20-R01` <dbl>,
    #   `Newman-min20-R02` <dbl>, `Newman-min20-R03` <dbl>,
    #   `Newman-min30-R01` <dbl>, `Newman-min30-R02` <dbl>,
    #   `Newman-min30-R03` <dbl>, `Newman-min5-R01` <dbl>, …
…
### Phanotate analysis

``` r
process_expression_data(folder_path = "ungrouped-mapping/phanotate-mapping/", output_file_path = "ungrouped-mapping/phanotate-expression.tsv")
```

    # A tibble: 276 × 19
       Gene     `Newman-control-R01` `Newman-control-R02` `Newman-control-R03`
       <chr>                   <dbl>                <dbl>                <dbl>
     1 CDS_0001                    0                    0                    0
     2 CDS_0002                    0                    0                    0
     3 CDS_0003                    0                    0                    0
     4 CDS_0004                    0                    0                    0
     5 CDS_0005                    0                    0                    0
     6 CDS_0006                    0                    0                    0
     7 CDS_0007                    0                    0                    0
     8 CDS_0008                    1                    0                    0
     9 CDS_0009                    0                    0                    0
    10 CDS_0010                    0                    0                    0
    # ℹ 266 more rows
    # ℹ 15 more variables: `Newman-min10-R01` <dbl>, `Newman-min10-R02` <dbl>,
    #   `Newman-min10-R03` <dbl>, `Newman-min2-R01` <dbl>, `Newman-min2-R02` <dbl>,
    #   `Newman-min2-R03` <dbl>, `Newman-min20-R01` <dbl>,
    #   `Newman-min20-R02` <dbl>, `Newman-min20-R03` <dbl>,
    #   `Newman-min30-R01` <dbl>, `Newman-min30-R02` <dbl>,
    #   `Newman-min30-R03` <dbl>, `Newman-min5-R01` <dbl>, …
…
